{"data":[{"id":7,"attributes":{"resort":"roza","hours":3,"days":1,"disabled":false,"secondary":false,"title":"09-12/13-16","subtitle":"","age":"kids","createdAt":"2023-11-29T09:44:15.825Z","updatedAt":"2023-11-29T09:44:15.825Z","low":4900,"high":6000,"peak":7000,"category":"group","clients":null}},{"id":8,"attributes":{"resort":"kp","hours":2,"days":1,"disabled":false,"secondary":false,"title":"09:45-11:45 14:00-16:00","subtitle":"","age":"kids","createdAt":"2023-11-29T09:44:15.827Z","updatedAt":"2023-11-29T09:44:15.827Z","low":3400,"high":3600,"peak":4000,"category":"group","clients":null}},{"id":9,"attributes":{"resort":"kp","hours":2,"days":1,"disabled":false,"secondary":false,"title":"12:00-14:00","subtitle":"","age":"kids","createdAt":"2023-11-29T09:44:15.830Z","updatedAt":"2023-11-29T09:44:15.829Z","low":3200,"high":3400,"peak":3800,"category":"group","clients":null}},{"id":10,"attributes":{"resort":"kp","hours":4,"days":1,"disabled":false,"secondary":false,"title":"Весь день с 9:45 до 16:00","subtitle":"09:45-11:45 занятие на склоне\r\n12:00-14:00 отдых и обед\r\n14:00-16:00 занятие на склоне\r\nОбед оплачивается отдельно","age":"kids","createdAt":"2023-11-29T09:44:15.837Z","updatedAt":"2023-11-29T09:44:15.836Z","low":9000,"high":10000,"peak":11500,"category":"group","clients":null}},{"id":11,"attributes":{"resort":"kp","hours":5,"days":3,"disabled":false,"secondary":false,"title":"3 дня по 5 часов 10:00-15:00","subtitle":"","age":"kids","createdAt":"2023-11-29T09:44:15.866Z","updatedAt":"2023-11-29T09:44:15.865Z","low":16400,"high":17500,"peak":19100,"category":"group","clients":null}},{"id":12,"attributes":{"resort":"kp","hours":5,"days":5,"disabled":false,"secondary":false,"title":"5 дней по 5 часов 10:00-15:00","subtitle":"","age":"kids","createdAt":"2023-11-29T09:44:15.873Z","updatedAt":"2023-11-29T09:44:15.872Z","low":26400,"high":27800,"peak":31300,"category":"group","clients":null}},{"id":13,"attributes":{"resort":"kp","hours":1,"days":1,"disabled":false,"secondary":true,"title":"Доп час катания","subtitle":"","age":"kids","createdAt":"2023-11-29T09:44:15.881Z","updatedAt":"2023-11-29T09:44:15.880Z","low":1100,"high":1200,"peak":1300,"category":"group","clients":null}},{"id":14,"attributes":{"resort":"kp","hours":1,"days":1,"disabled":false,"secondary":true,"title":"Доп час в детской","subtitle":"","age":"kids","createdAt":"2023-11-29T09:44:15.884Z","updatedAt":"2023-11-29T09:44:15.884Z","low":800,"high":900,"peak":1000,"category":"group","clients":null}},{"id":15,"attributes":{"resort":"gazprom","hours":2,"days":1,"disabled":false,"secondary":false,"title":"2 часа","subtitle":"Лаура","age":"kids","createdAt":"2023-11-29T09:44:15.887Z","updatedAt":"2023-11-29T09:44:15.887Z","low":2000,"high":2500,"peak":3000,"category":"group","clients":null}},{"id":16,"attributes":{"resort":"gazprom","hours":2,"days":3,"disabled":false,"secondary":false,"title":"3 дня по 2 часа","subtitle":"Лаура","age":"kids","createdAt":"2023-11-29T09:44:15.892Z","updatedAt":"2023-11-29T09:44:15.890Z","low":5500,"high":7000,"peak":8500,"category":"group","clients":null}},{"id":17,"attributes":{"resort":"gazprom","hours":2,"days":5,"disabled":false,"secondary":false,"title":"5 дней по 2 часа","subtitle":"Лаура","age":"kids","createdAt":"2023-11-29T09:44:15.896Z","updatedAt":"2023-11-29T09:44:15.896Z","low":9500,"high":12000,"peak":14500,"category":"group","clients":null}},{"id":18,"attributes":{"resort":"gazprom","hours":4,"days":1,"disabled":false,"secondary":false,"title":"4 часа","subtitle":"Альпика","age":"kids","createdAt":"2023-11-29T09:44:15.898Z","updatedAt":"2023-11-29T09:44:15.898Z","low":3000,"high":4000,"peak":5000,"category":"group","clients":null}},{"id":19,"attributes":{"resort":"roza","hours":3,"days":3,"disabled":false,"secondary":false,"title":"3 дня пт-вс пол дня","subtitle":"Пол дня: 9-11 катание 11-12 обед 12-13 катание","age":"kids","createdAt":"2023-11-29T09:44:15.900Z","updatedAt":"2023-11-29T09:44:15.900Z","low":35700,"high":42000,"peak":47400,"category":"course","clients":null}},{"id":20,"attributes":{"resort":"roza","hours":5,"days":3,"disabled":false,"secondary":false,"title":"3 дня пт-вс весь день","subtitle":"Весь день: 10-12 катание 12-13 обед 13-15 катание 15-16 детская комната","age":"kids","createdAt":"2023-11-29T09:44:15.902Z","updatedAt":"2023-11-29T09:44:15.901Z","low":60900,"high":71700,"peak":81000,"category":"course","clients":null}},{"id":22,"attributes":{"resort":"roza","hours":5,"days":5,"disabled":false,"secondary":false,"title":"5 дней пт-вс весь день","subtitle":"Весь день: 10-12 катание 12-13 обед 13-15 катание 15-16 детская комната","age":"kids","createdAt":"2023-11-29T09:44:15.905Z","updatedAt":"2023-11-29T09:44:15.905Z","low":101500,"high":119500,"peak":135000,"category":"course","clients":null}},{"id":23,"attributes":{"resort":"kp","hours":3,"days":3,"disabled":false,"secondary":false,"title":"3 дня пт-вс пол дня","subtitle":"Пол дня: 9-11 катание 11-12 обед 12-13 катание","age":"kids","createdAt":"2023-11-29T09:44:15.908Z","updatedAt":"2023-11-29T09:44:15.907Z","low":36300,"high":42000,"peak":47700,"category":"course","clients":null}},{"id":24,"attributes":{"resort":"kp","hours":5,"days":3,"disabled":false,"secondary":false,"title":"3 дня пт-вс весь день","subtitle":"Весь день: 10-12 катание 12-13 обед 13-15 катание 15-16 детская комната","age":"kids","createdAt":"2023-11-29T09:44:15.910Z","updatedAt":"2023-11-29T09:44:15.910Z","low":57900,"high":67200,"peak":76500,"category":"course","clients":null}},{"id":25,"attributes":{"resort":"kp","hours":3,"days":5,"disabled":false,"secondary":false,"title":"5 дней пт-вс пол дня","subtitle":"Пол дня: 9-11 катание 11-12 обед 12-13 катание","age":"kids","createdAt":"2023-11-29T09:44:15.912Z","updatedAt":"2023-11-29T09:44:15.911Z","low":60500,"high":70000,"peak":79500,"category":"course","clients":null}},{"id":26,"attributes":{"resort":"kp","hours":5,"days":5,"disabled":false,"secondary":false,"title":"5 дней пт-вс весь день","subtitle":"Весь день: 10-12 катание 12-13 обед 13-15 катание 15-16 детская комната","age":"kids","createdAt":"2023-11-29T09:44:15.914Z","updatedAt":"2023-11-29T09:44:15.913Z","low":96500,"high":112000,"peak":127500,"category":"course","clients":null}},{"id":28,"attributes":{"resort":"gazprom","hours":5,"days":3,"disabled":false,"secondary":false,"title":"3 дня пт-вс весь день","subtitle":"Весь день: 10-12 катание 12-13 обед 13-15 катание","age":"kids","createdAt":"2023-11-29T09:44:15.917Z","updatedAt":"2023-11-29T09:44:15.917Z","low":63000,"high":67500,"peak":72000,"category":"course","clients":null}},{"id":30,"attributes":{"resort":"gazprom","hours":5,"days":5,"disabled":false,"secondary":false,"title":"5 дней пт-вс весь день","subtitle":"Весь день: 10-12 катание 12-13 обед 13-15 катание","age":"kids","createdAt":"2023-11-29T09:44:15.920Z","updatedAt":"2023-11-29T09:44:15.920Z","low":102500,"high":110000,"peak":117500,"category":"course","clients":null}},{"id":29,"attributes":{"resort":"gazprom","hours":3,"days":5,"disabled":false,"secondary":false,"title":"5 дней пт-вс пол дня","subtitle":"Пол дня: 9-11 катание 11-12 обед 12-13 катание","age":"kids","createdAt":"2023-11-29T09:44:15.919Z","updatedAt":"2023-12-12T17:05:25.817Z","low":62500,"high":67000,"peak":71500,"category":"course","clients":null}},{"id":21,"attributes":{"resort":"roza","hours":3,"days":5,"disabled":false,"secondary":false,"title":"5 дней пт-вс пол дня","subtitle":"Пол дня: 9-11 катание 11-12 обед 12-13 катание","age":"kids","createdAt":"2023-11-29T09:44:15.903Z","updatedAt":"2023-12-12T17:05:39.506Z","low":59500,"high":70000,"peak":79000,"category":"course","clients":null}},{"id":4,"attributes":{"resort":"gazprom","hours":3,"days":1,"disabled":false,"secondary":false,"title":"3 часа","subtitle":"обучение до 1,5 часов и сопровождение","age":"kids","createdAt":"2023-11-29T09:44:15.818Z","updatedAt":"2023-12-18T15:40:28.187Z","low":10350,"high":12100,"peak":13800,"category":"ind","clients":null}},{"id":27,"attributes":{"resort":"gazprom","hours":3,"days":3,"disabled":false,"secondary":false,"title":"3 дня пт-вс пол дня","subtitle":"Пол дня: 9-11 катание 11-12 обед 12-13 катание","age":"kids","createdAt":"2023-11-29T09:44:15.915Z","updatedAt":"2023-12-18T15:41:05.105Z","low":34050,"high":39300,"peak":44400,"category":"course","clients":null}}],"meta":{"pagination":{"page":1,"pageSize":25,"pageCount":4,"total":97}}}