{"data":[{"id":1,"attributes":{"equipment":"set","age":"kids","class":"","price":900,"description":"лыжи+палки+ботинки","createdAt":"2023-12-18T15:06:48.993Z","updatedAt":"2023-12-18T15:06:48.993Z"}},{"id":2,"attributes":{"equipment":"set","age":"kids","class":"","price":900,"description":"сноуборд+ботинки","createdAt":"2023-12-18T15:06:48.996Z","updatedAt":"2023-12-18T15:06:48.996Z"}},{"id":3,"attributes":{"equipment":"set","age":"adult","class":"econom","price":900,"description":"лыжи+палки+ботинки","createdAt":"2023-12-18T15:06:48.998Z","updatedAt":"2023-12-18T15:06:48.998Z"}},{"id":4,"attributes":{"equipment":"set","age":"adult","class":"econom","price":900,"description":"сноуборд+ботинки","createdAt":"2023-12-18T15:06:49.000Z","updatedAt":"2023-12-18T15:06:49.000Z"}},{"id":5,"attributes":{"equipment":"set","age":"adult","class":"comfort","price":1800,"description":"лыжи+палки+ботинки","createdAt":"2023-12-18T15:06:49.001Z","updatedAt":"2023-12-18T15:06:49.001Z"}},{"id":6,"attributes":{"equipment":"set","age":"adult","class":"comfort","price":1800,"description":"сноуборд+ботинки","createdAt":"2023-12-18T15:06:49.003Z","updatedAt":"2023-12-18T15:06:49.003Z"}},{"id":7,"attributes":{"equipment":"set","age":"adult","class":"premium","price":2400,"description":"лыжи+палки+ботинки","createdAt":"2023-12-18T15:06:49.004Z","updatedAt":"2023-12-18T15:06:49.004Z"}},{"id":8,"attributes":{"equipment":"set","age":"adult","class":"premium","price":2400,"description":"сноуборд+ботинки","createdAt":"2023-12-18T15:06:49.007Z","updatedAt":"2023-12-18T15:06:49.007Z"}},{"id":9,"attributes":{"equipment":"boots","age":"","class":"","price":400,"description":"ботинки для сноуборда","createdAt":"2023-12-18T15:06:49.009Z","updatedAt":"2023-12-18T15:06:49.009Z"}},{"id":10,"attributes":{"equipment":"boots","age":"","class":"","price":400,"description":"ботинки для горных лыж","createdAt":"2023-12-18T15:06:49.012Z","updatedAt":"2023-12-18T15:06:49.012Z"}},{"id":11,"attributes":{"equipment":"ski","age":"kids","class":"","price":500,"description":"детские лыжи","createdAt":"2023-12-18T15:06:49.014Z","updatedAt":"2023-12-18T15:06:49.014Z"}},{"id":12,"attributes":{"equipment":"snowboard","age":"kids","class":"","price":500,"description":"детский сноуборд","createdAt":"2023-12-18T15:06:49.016Z","updatedAt":"2023-12-18T15:06:49.016Z"}},{"id":13,"attributes":{"equipment":"ski","age":"adult","class":"econom","price":500,"description":"базовые лыжи прошлых сезонов","createdAt":"2023-12-18T15:06:49.019Z","updatedAt":"2023-12-18T15:06:49.019Z"}},{"id":14,"attributes":{"equipment":"snowboard","age":"adult","class":"econom","price":500,"description":"базовые сноуборды прошлых сезонов","createdAt":"2023-12-18T15:06:49.022Z","updatedAt":"2023-12-18T15:06:49.022Z"}},{"id":15,"attributes":{"equipment":"ski","age":"adult","class":"comfort","price":1400,"description":"актуальные лыжи для начинающих","createdAt":"2023-12-18T15:06:49.024Z","updatedAt":"2023-12-18T15:06:49.024Z"}},{"id":16,"attributes":{"equipment":"snowboard","age":"adult","class":"comfort","price":1400,"description":"актуальные доски для начинающих","createdAt":"2023-12-18T15:06:49.027Z","updatedAt":"2023-12-18T15:06:49.027Z"}},{"id":17,"attributes":{"equipment":"ski","age":"adult","class":"premium","price":2000,"description":"фрирайд/парк/карвинг/универсал","createdAt":"2023-12-18T15:06:49.032Z","updatedAt":"2023-12-18T15:06:49.032Z"}},{"id":18,"attributes":{"equipment":"snowboard","age":"adult","class":"premium","price":2000,"description":"фрирайд/парк/карвинг/универсал","createdAt":"2023-12-18T15:06:49.034Z","updatedAt":"2023-12-18T15:06:49.034Z"}},{"id":19,"attributes":{"equipment":"helmet","age":"adult","class":"","price":500,"description":"нога/рука зажить может, а голова - нет","createdAt":"2023-12-18T15:06:49.036Z","updatedAt":"2023-12-18T15:06:49.036Z"}},{"id":20,"attributes":{"equipment":"helmet","age":"kids","class":"","price":300,"description":"нога/рука зажить может, а голова - нет","createdAt":"2023-12-18T15:06:49.037Z","updatedAt":"2023-12-18T15:06:49.037Z"}},{"id":21,"attributes":{"equipment":"overalls","age":"adult","class":"","price":1500,"description":"вместо куртки и штанов","createdAt":"2023-12-18T15:06:49.039Z","updatedAt":"2023-12-18T15:06:49.039Z"}},{"id":22,"attributes":{"equipment":"overalls","age":"kids","class":"","price":600,"description":"вместо куртки и штанов","createdAt":"2023-12-18T15:06:49.040Z","updatedAt":"2023-12-18T15:06:49.040Z"}},{"id":23,"attributes":{"equipment":"jacket","age":"adult","class":"","price":800,"description":"с мембраной для активного отдыха","createdAt":"2023-12-18T15:06:49.041Z","updatedAt":"2023-12-18T15:06:49.041Z"}},{"id":24,"attributes":{"equipment":"jacket","age":"kids","class":"","price":300,"description":"с мембраной для активного отдыха","createdAt":"2023-12-18T15:06:49.043Z","updatedAt":"2023-12-18T15:06:49.043Z"}},{"id":25,"attributes":{"equipment":"pants","age":"adult","class":"","price":800,"description":"с мембраной для активного отдыха","createdAt":"2023-12-18T15:06:49.044Z","updatedAt":"2023-12-18T15:06:49.044Z"}}],"meta":{"pagination":{"page":1,"pageSize":25,"pageCount":2,"total":35}}}